{
  "connection": "default",
  "collectionName": "",
  "info": {
    "name": "contact",
    "description": ""
  },
  "options": {
    "timestamps": true
  },
  "attributes": {
    "name": {
      "required": true,
      "type": "string"
    },
    "email": {
      "required": true,
      "type": "email"
    },
    "subject": {
      "required": true,
      "type": "string"
    },
    "message": {
      "required": true,
      "type": "text"
    }
  }
}