{
  "connection": "default",
  "collectionName": "banner",
  "info": {
    "name": "banner",
    "description": ""
  },
  "options": {
    "timestamps": [
      "createdAt",
      "updatedAt"
    ]
  },
  "attributes": {
    "title": {
      "type": "string"
    },
    "priority": {
      "enum": [
        "Priority1",
        "Priority2",
        "Priority3"
      ],
      "type": "enumeration",
      "required": true,
      "enumDefault": "Normal"
    },
    "image": {
      "model": "file",
      "via": "related",
      "plugin": "upload"
    },
    "imageMobile": {
      "model": "file",
      "via": "related",
      "plugin": "upload"
    },
    "link": {
      "type": "string"
    },
    "actionButton": {
      "type": "string",
      "default": "no"
    },
    "buttonPosition": {
      "enum": [
        "Center",
        "Left",
        "Right"
      ],
      "type": "enumeration",
      "enumDefault": "Center",
      "required": true
    },
    "externalLink": {
      "type": "boolean",
      "required": true
    },
    "delete": {
      "type": "boolean",
      "required": true
    }
  }
}